<?xml version="1.0" encoding="UTF-8" standalone="no"?>
<svg
   width="44.466390000000004mm"
   height="125.2674479591823mm"
   viewBox="0 0 44.466390000000004 125.2674479591823"
   version="1.1"
   id="svg14"
   sodipodi:docname="Numbers.svg"
   inkscape:version="1.3.2 (091e20ef0f, 2023-11-25)"
   xmlns:inkscape="http://www.inkscape.org/namespaces/inkscape"
   xmlns:sodipodi="http://sodipodi.sourceforge.net/DTD/sodipodi-0.dtd"
   xmlns="http://www.w3.org/2000/svg"
   xmlns:svg="http://www.w3.org/2000/svg">
  <defs
     id="defs14" />
  <sodipodi:namedview
     id="namedview14"
     pagecolor="#ffffff"
     bordercolor="#666666"
     borderopacity="1.0"
     inkscape:showpageshadow="2"
     inkscape:pageopacity="0.0"
     inkscape:pagecheckerboard="0"
     inkscape:deskcolor="#d1d1d1"
     inkscape:document-units="mm"
     inkscape:zoom="4.3869304"
     inkscape:cx="84.113483"
     inkscape:cy="238.54949"
     inkscape:window-width="3840"
     inkscape:window-height="2307"
     inkscape:window-x="0"
     inkscape:window-y="0"
     inkscape:window-maximized="1"
     inkscape:current-layer="layer1" />
  <g
     inkscape:groupmode="layer"
     id="layer1"
     inkscape:label="Numbers"
     style="display:inline">
    <g
       id="ShapeString014"
       transform="matrix(1,0,0,-1,-29.132554,62.633725)"
       style="display:inline;fill:#000000;fill-opacity:1;stroke:none">
      <path
         id="ShapeString014_f0000"
         d="m 37.101427,56.163519 q 0.164011,-0.09469 0.348514,-0.133 0.184354,-0.03822 0.374932,-0.02389 0.190344,0.01427 0.380248,0.07744 0.189755,0.06325 0.367441,0.168276 0.177538,0.105107 0.336879,0.249588 0.159341,0.14448 0.286485,0.322577 l -0.344637,-0.160286 q -0.07818,-0.0039 -0.173663,0.0067 -0.09572,0.01058 -0.194504,0.034 -0.09902,0.02336 -0.19412,0.05829 -0.09525,0.03502 -0.172658,0.07972 -0.198267,0.114469 -0.349878,0.275159 -0.151845,0.160627 -0.22828,0.357004 -0.07652,0.196228 -0.05851,0.42468 0.01801,0.228452 0.161587,0.477137 0.142295,0.246462 0.352713,0.418793 0.210183,0.172268 0.4561,0.250947 0.24583,0.07853 0.51076,0.0535 0.264845,-0.02518 0.520056,-0.172526 0.223179,-0.128853 0.353845,-0.299793 0.130432,-0.171002 0.18979,-0.363055 0.05912,-0.192116 0.05653,-0.393875 -0.0027,-0.201907 -0.04179,-0.393267 -0.03919,-0.191508 -0.10702,-0.361734 -0.06806,-0.170289 -0.142979,-0.300044 -0.156421,-0.27093 -0.360723,-0.496025 -0.204451,-0.225009 -0.441068,-0.390321 -0.236702,-0.16546 -0.499055,-0.267471 -0.262353,-0.102011 -0.535228,-0.124987 -0.273109,-0.02304 -0.550528,0.0355 -0.277652,0.05848 -0.546357,0.213613 -0.03411,0.01969 -0.07424,0.04504 -0.04022,0.0252 -0.05923,0.04467 l 0.28006,0.353572 q 0.01336,-0.01384 0.04346,-0.0326 0.03001,-0.01891 0.05507,-0.03338 z m 2.409394,1.30607 q 0.02043,0.05662 0.03986,0.127257 0.04312,0.148311 0.04976,0.285847 0.0064,0.137473 -0.02809,0.25922 -0.0345,0.121747 -0.113844,0.223708 -0.07934,0.101961 -0.209096,0.176875 -0.180027,0.103939 -0.345841,0.108521 -0.165962,0.0047 -0.310663,-0.06206 -0.144935,-0.06679 -0.26533,-0.188675 -0.120543,-0.1218 -0.205988,-0.269795 -0.08288,-0.143547 -0.103861,-0.277153 -0.02107,-0.133755 0.01505,-0.250306 0.03597,-0.116465 0.123162,-0.215445 0.08704,-0.09889 0.219171,-0.175178 0.123083,-0.07106 0.256319,-0.108441 0.13315,-0.03753 0.26352,-0.04597 0.13037,-0.0084 0.24715,0.01232 0.116631,0.02085 0.206567,0.066 0.03681,0.06377 0.06609,0.11686 0.02904,0.05303 0.05234,0.106408 0.02315,0.05346 0.04373,0.109993 z"
         stroke="#191919"
         stroke-width="0.35 px"
         style="fill:#000000;fill-opacity:1;fill-rule:evenodd;stroke:none;stroke-width:0.35;stroke-linecap:square;stroke-miterlimit:4;stroke-dasharray:none" />
      <path
         id="ShapeString014_f0001"
         d="m 37.065699,59.954718 q 0.05509,-0.201846 0.05338,-0.428438 -0.0019,-0.226654 -0.04932,-0.458713 -0.04746,-0.232208 -0.134501,-0.456593 -0.08712,-0.224533 -0.202792,-0.424876 -0.118322,-0.204939 -0.266498,-0.398574 -0.14841,-0.193698 -0.319308,-0.353058 -0.170898,-0.15936 -0.361081,-0.275753 -0.190331,-0.116307 -0.391161,-0.167236 -0.200977,-0.05084 -0.410437,-0.02699 -0.209545,0.0237 -0.421454,0.146048 -0.193669,0.111815 -0.312585,0.279134 -0.119064,0.167406 -0.174151,0.369252 -0.05509,0.201846 -0.05314,0.4285 0.0017,0.226592 0.04917,0.458799 0.04738,0.23206 0.1351,0.457631 0.08772,0.225572 0.202107,0.42369 0.118322,0.204939 0.266732,0.398637 0.148177,0.193635 0.319075,0.352995 0.170897,0.15936 0.361229,0.275667 0.190182,0.116393 0.39116,0.167236 0.20083,0.05093 0.411561,0.02654 0.210646,-0.02454 0.420182,-0.145511 0.19367,-0.111815 0.312734,-0.27922 0.118915,-0.16732 0.174003,-0.369166 z M 36.61768,59.357836 q 0.03813,0.179066 0.02752,0.342187 -0.01062,0.163121 -0.08239,0.299073 -0.07178,0.135952 -0.226742,0.225421 -0.13895,0.08022 -0.273599,0.08639 -0.134735,0.006 -0.263195,-0.0432 -0.128695,-0.04928 -0.246993,-0.143899 -0.118532,-0.09469 -0.227483,-0.217643 -0.109037,-0.123104 -0.206243,-0.2651 -0.09729,-0.142145 -0.179141,-0.283912 -0.07654,-0.132573 -0.159043,-0.296702 -0.08273,-0.164192 -0.147681,-0.340038 -0.06518,-0.175909 -0.104,-0.356161 -0.03882,-0.180253 -0.02752,-0.342187 0.01121,-0.162083 0.08299,-0.298035 0.07178,-0.135952 0.226743,-0.225421 0.138949,-0.08022 0.273684,-0.08624 0.13465,-0.0062 0.262659,0.04192 0.127776,0.04803 0.246992,0.143899 0.118983,0.09581 0.22802,0.218915 0.108952,0.122956 0.205559,0.263914 0.09652,0.14081 0.17837,0.282577 0.07663,0.132721 0.159362,0.296913 0.0825,0.164129 0.14828,0.341076 0.06563,0.177032 0.103853,0.356247 z"
         stroke="#191919"
         stroke-width="0.35 px"
         style="fill:#000000;fill-opacity:1;fill-rule:evenodd;stroke:none;stroke-width:0.35;stroke-linecap:square;stroke-miterlimit:4;stroke-dasharray:none" />
      <title
         id="title13">b'ShapeR60'</title>
    </g>
    <g
       id="ShapeString013"
       transform="matrix(1,0,0,-1,-29.132554,62.633725)"
       style="fill:#000000;fill-opacity:1;stroke:none">
      <path
         id="ShapeString013_f0000"
         d="m 35.358847,-57.169598 q -0.164011,-0.09469 -0.289438,-0.235321 -0.125279,-0.140545 -0.208152,-0.312759 -0.08281,-0.17198 -0.123056,-0.368025 -0.0401,-0.19596 -0.03799,-0.402352 0.0023,-0.206306 0.04771,-0.41654 0.04545,-0.210234 0.136117,-0.409392 l 0.03351,0.378608 q 0.03571,0.06965 0.09267,0.147025 0.05702,0.07761 0.126696,0.151447 0.06974,0.07407 0.147545,0.138965 0.07795,0.06498 0.155364,0.109669 0.198266,0.11447 0.413233,0.165423 0.21503,0.05119 0.423315,0.0192 0.208199,-0.03185 0.39704,-0.161666 0.188841,-0.129822 0.33242,-0.378508 0.142294,-0.246461 0.186329,-0.514854 0.0441,-0.268159 -0.01072,-0.520468 -0.05491,-0.25216 -0.209048,-0.469081 -0.154229,-0.216773 -0.409439,-0.364119 -0.22318,-0.128853 -0.436551,-0.156543 -0.213309,-0.02746 -0.40931,0.01717 -0.195939,0.04485 -0.369369,0.147984 -0.173515,0.103277 -0.319686,0.232822 -0.146256,0.129692 -0.259761,0.273549 -0.113442,0.14409 -0.188356,0.273845 -0.156421,0.27093 -0.249208,0.560408 -0.09264,0.289564 -0.117494,0.577137 -0.02494,0.28772 0.01789,0.56593 0.04283,0.278209 0.159372,0.526014 0.116603,0.248039 0.306007,0.459022 0.189468,0.211216 0.458173,0.366353 0.03411,0.01969 0.07613,0.04178 0.04193,0.02223 0.0683,0.02896 l 0.166172,-0.419326 q -0.01867,-0.0046 -0.04997,-0.02133 -0.03138,-0.01654 -0.05644,-0.03101 z m -0.07361,-2.739632 q 0.03882,-0.046 0.09028,-0.09815 0.106883,-0.111496 0.22267,-0.186018 0.11585,-0.07429 0.238538,-0.105282 0.122687,-0.03099 0.250658,-0.01326 0.127971,0.01773 0.257727,0.09265 0.180026,0.103938 0.266902,0.245246 0.08702,0.141393 0.101588,0.300071 0.01463,0.158912 -0.03073,0.32412 -0.04521,0.165293 -0.130656,0.313289 -0.08288,0.143546 -0.188091,0.228522 -0.105299,0.08512 -0.224294,0.112121 -0.118847,0.02708 -0.248162,0.0011 -0.129167,-0.02593 -0.261295,-0.102219 -0.123082,-0.07106 -0.222072,-0.167757 -0.09907,-0.09655 -0.171568,-0.205233 -0.07249,-0.108684 -0.112903,-0.220199 -0.04026,-0.111429 -0.04612,-0.211895 0.03682,-0.06376 0.06816,-0.115661 0.03141,-0.05166 0.06598,-0.09853 0.03472,-0.04678 0.07339,-0.09287 z"
         stroke="#191919"
         stroke-width="0.35 px"
         style="fill:#000000;fill-opacity:1;fill-rule:evenodd;stroke:none;stroke-width:0.35;stroke-linecap:square;stroke-miterlimit:4;stroke-dasharray:none" />
      <path
         id="ShapeString013_f0001"
         d="m 38.659986,-59.034256 q -0.202347,0.05322 -0.397727,0.167993 -0.195316,0.11501 -0.372597,0.272069 -0.177366,0.157208 -0.32817,0.344778 -0.15089,0.187718 -0.266558,0.388061 -0.118321,0.204939 -0.211926,0.430081 -0.09354,0.225376 -0.146103,0.453058 -0.05256,0.227682 -0.05827,0.450581 -0.0056,0.222986 0.05075,0.422373 0.05646,0.199474 0.181841,0.368946 0.125299,0.169621 0.337208,0.291967 0.193669,0.111815 0.39803,0.131139 0.204509,0.01941 0.406857,-0.03381 0.202348,-0.05322 0.397664,-0.168227 0.195379,-0.114776 0.372746,-0.271984 0.17728,-0.157059 0.328769,-0.345815 0.151489,-0.188757 0.265873,-0.386875 0.118322,-0.204939 0.211864,-0.430315 0.0936,-0.225142 0.146165,-0.452824 0.05256,-0.227682 0.05812,-0.450667 0.0057,-0.222899 -0.05075,-0.422373 -0.05631,-0.199388 -0.182794,-0.369694 -0.12657,-0.170157 -0.336107,-0.291133 -0.193669,-0.111815 -0.398178,-0.131225 -0.204361,-0.01932 -0.406709,0.03389 z m -0.292905,0.686437 q 0.136008,-0.122559 0.282582,-0.194927 0.146574,-0.07237 0.300201,-0.07818 0.153627,-0.0058 0.308592,0.08365 0.138949,0.08022 0.211612,0.19375 0.07258,0.113676 0.09419,0.249533 0.02167,0.13609 -0.0011,0.285851 -0.02274,0.149995 -0.07474,0.305828 -0.05209,0.155981 -0.126462,0.311162 -0.07446,0.155329 -0.156304,0.297096 -0.07654,0.132573 -0.177431,0.286086 -0.100826,0.153746 -0.220641,0.297914 -0.119751,0.144402 -0.256444,0.268148 -0.136693,0.123746 -0.282583,0.194927 -0.145975,0.07133 -0.299601,0.07714 -0.153627,0.0058 -0.308592,-0.08365 -0.13895,-0.08022 -0.211527,-0.193898 -0.07266,-0.113528 -0.09502,-0.248432 -0.0223,-0.13467 0.0011,-0.285851 0.02348,-0.150947 0.07558,-0.306928 0.05201,-0.155833 0.125778,-0.309976 0.07368,-0.153995 0.155533,-0.295762 0.07663,-0.132722 0.177454,-0.286468 0.100889,-0.153513 0.22124,-0.298953 0.120499,-0.145354 0.256593,-0.268062 z"
         stroke="#191919"
         stroke-width="0.35 px"
         style="fill:#000000;fill-opacity:1;fill-rule:evenodd;stroke:none;stroke-width:0.35;stroke-linecap:square;stroke-miterlimit:4;stroke-dasharray:none" />
      <title
         id="title12">b'ShapeL60'</title>
    </g>
    <g
       id="ShapeString012"
       transform="matrix(1,0,0,-1,-29.132554,62.633725)"
       style="fill:#000000;fill-opacity:1;stroke:none">
      <path
         id="ShapeString012_f0000"
         d="m 46.239214,51.084614 q -0.06777,0.02579 -0.146197,0.06925 -0.07856,0.04357 -0.161198,0.112908 -0.209482,0.175776 -0.318566,0.379297 -0.109194,0.203389 -0.127294,0.413046 -0.0181,0.209657 0.05126,0.412989 0.06936,0.203331 0.215085,0.377003 0.171153,0.203972 0.388649,0.315859 0.217385,0.111756 0.45943,0.144478 0.242045,0.03272 0.498502,-0.0034 0.256216,-0.03617 0.506884,-0.124233 0.250427,-0.08809 0.481625,-0.221732 0.231088,-0.133777 0.424566,-0.296125 l -0.274725,-0.327405 q -0.154522,0.12273 -0.337304,0.219773 -0.183024,0.09702 -0.373388,0.162652 -0.190606,0.06561 -0.382241,0.09296 -0.191745,0.02722 -0.36542,0.01045 -0.173916,-0.01679 -0.322659,-0.08377 -0.148873,-0.06687 -0.255087,-0.193449 -0.08607,-0.102577 -0.133653,-0.226945 -0.04771,-0.124258 -0.04544,-0.254474 0.0022,-0.130347 0.0622,-0.2594 0.05992,-0.129184 0.190829,-0.23903 0.102708,-0.08618 0.196353,-0.142406 0.09365,-0.05622 0.175169,-0.092 0.08152,-0.03577 0.148212,-0.0506 0.06656,-0.01472 0.113676,-0.01983 l 0.249882,-0.209677 -1.182333,-1.409049 -1.517135,1.273027 0.274726,0.327406 1.09804,-0.921366 0.59678,0.711215 q -0.02088,0.0039 -0.07122,0.01528 -0.05047,0.01151 -0.118001,0.03732 z"
         stroke="#191919"
         stroke-width="0.35 px"
         style="fill:#000000;fill-opacity:1;fill-rule:evenodd;stroke:none;stroke-width:0.35;stroke-linecap:square;stroke-miterlimit:4;stroke-dasharray:none" />
      <path
         id="ShapeString012_f0001"
         d="m 45.481722,54.848509 q 0.0192,-0.208346 -0.02183,-0.431198 -0.04127,-0.222873 -0.128226,-0.44318 -0.08706,-0.220438 -0.211744,-0.4263 -0.12479,-0.205994 -0.27349,-0.383207 -0.152112,-0.18128 -0.331661,-0.346242 -0.179791,-0.164984 -0.375765,-0.292247 -0.195974,-0.127263 -0.403479,-0.208862 -0.207636,-0.08149 -0.414258,-0.09677 -0.206753,-0.01517 -0.408889,0.04469 -0.202246,0.05973 -0.389691,0.217013 -0.17131,0.143746 -0.259365,0.329174 -0.08819,0.185537 -0.107386,0.393882 -0.0192,0.208346 0.02207,0.431219 0.04103,0.222853 0.128094,0.44329 0.08695,0.220307 0.212515,0.427219 0.125561,0.206911 0.272609,0.382157 0.152112,0.18128 0.331903,0.346263 0.179549,0.164963 0.375523,0.292226 0.195975,0.127263 0.403611,0.208752 0.207505,0.0816 0.414258,0.09677 0.206622,0.01528 0.409917,-0.04533 0.203185,-0.06074 0.388531,-0.216264 0.171311,-0.143746 0.259497,-0.329283 0.08805,-0.185428 0.107254,-0.393773 z m -0.54486,-0.510017 q 0.06865,0.169724 0.08652,0.33221 0.01787,0.162486 -0.02921,0.308836 -0.04708,0.146351 -0.184154,0.26137 -0.122908,0.103133 -0.254441,0.132585 -0.131644,0.02932 -0.266698,0.0032 -0.135296,-0.02618 -0.268228,-0.09882 -0.133173,-0.07267 -0.261821,-0.174835 -0.128757,-0.1023 -0.249144,-0.225259 -0.120497,-0.12309 -0.22572,-0.248491 -0.0984,-0.117268 -0.208148,-0.264577 -0.10999,-0.14733 -0.204484,-0.309227 -0.09474,-0.161918 -0.164268,-0.332691 -0.06953,-0.170774 -0.08652,-0.33221 -0.0171,-0.161567 0.02998,-0.307918 0.04708,-0.146351 0.184154,-0.26137 0.122908,-0.103132 0.254551,-0.132453 0.131533,-0.02945 0.265949,-0.0043 0.134174,0.02511 0.268227,0.09882 0.133813,0.07369 0.26257,0.175994 0.128648,0.102169 0.248264,0.22421 0.119506,0.12191 0.22473,0.24731 0.09851,0.117399 0.208499,0.26473 0.109748,0.147309 0.205255,0.310145 0.09538,0.162946 0.164136,0.332801 z"
         stroke="#191919"
         stroke-width="0.35 px"
         style="fill:#000000;fill-opacity:1;fill-rule:evenodd;stroke:none;stroke-width:0.35;stroke-linecap:square;stroke-miterlimit:4;stroke-dasharray:none" />
      <title
         id="title11">b'ShapeR50'</title>
    </g>
    <g
       id="ShapeString011"
       transform="matrix(1,0,0,-1,-29.132554,62.633725)"
       style="fill:#000000;fill-opacity:1;stroke:none">
      <path
         id="ShapeString011_f0000"
         d="m 42.898526,-53.887784 q 0.03717,0.06226 0.09359,0.13195 0.05655,0.0698 0.139185,0.139143 0.209482,0.175776 0.428853,0.247862 0.21926,0.07222 0.428875,0.05363 0.209615,-0.01858 0.397814,-0.122193 0.188198,-0.103611 0.333926,-0.277283 0.171154,-0.203972 0.243573,-0.437592 0.07231,-0.233489 0.0625,-0.477539 -0.0098,-0.244051 -0.08994,-0.490335 -0.08011,-0.246042 -0.210364,-0.47761 -0.130235,-0.231326 -0.301997,-0.435804 -0.171872,-0.204348 -0.365351,-0.366695 l -0.274726,0.327405 q 0.147698,0.130863 0.275007,0.294016 0.12733,0.163396 0.225019,0.339472 0.09771,0.176317 0.157925,0.360291 0.0601,0.184104 0.07374,0.358054 0.01366,0.17419 -0.02647,0.332303 -0.04,0.158224 -0.146215,0.284805 -0.08607,0.102576 -0.200288,0.171031 -0.114085,0.06856 -0.242718,0.08893 -0.128743,0.0205 -0.266259,-0.01621 -0.137626,-0.03658 -0.268536,-0.146422 -0.102707,-0.08618 -0.174339,-0.168641 -0.07163,-0.08246 -0.121017,-0.156534 -0.04939,-0.07407 -0.07557,-0.137173 -0.02605,-0.06299 -0.03927,-0.108505 l -0.249882,-0.209676 -1.182333,1.409049 1.517135,1.273028 0.274726,-0.327405 -1.098041,-0.921366 0.59678,-0.711214 q 0.0075,0.01989 0.02742,0.06749 0.0201,0.04771 0.05724,0.109728 z"
         stroke="#191919"
         stroke-width="0.35 px"
         style="fill:#000000;fill-opacity:1;fill-rule:evenodd;stroke:none;stroke-width:0.35;stroke-linecap:square;stroke-miterlimit:4;stroke-dasharray:none" />
      <path
         id="ShapeString011_f0001"
         d="m 46.736776,-53.795394 q -0.208515,0.01727 -0.420856,0.09638 -0.212321,0.07935 -0.414181,0.203236 -0.201971,0.124019 -0.383055,0.282553 -0.181194,0.158665 -0.329894,0.335878 -0.152112,0.18128 -0.28339,0.386747 -0.131257,0.205708 -0.222556,0.420804 -0.0913,0.215096 -0.135626,0.433618 -0.0442,0.218632 -0.02336,0.424769 0.02096,0.206247 0.115012,0.394917 0.09394,0.188802 0.281385,0.346086 0.171311,0.143747 0.369211,0.198265 0.198032,0.05463 0.406546,0.03736 0.208515,-0.01727 0.420835,-0.09662 0.212342,-0.07911 0.414312,-0.203126 0.201861,-0.123888 0.383825,-0.283471 0.181965,-0.159583 0.329014,-0.334829 0.152112,-0.18128 0.283369,-0.386988 0.131278,-0.205467 0.222577,-0.420563 0.0913,-0.215096 0.135494,-0.433728 0.04433,-0.218522 0.02337,-0.424769 -0.02083,-0.206137 -0.11582,-0.395819 -0.0951,-0.189551 -0.280446,-0.345074 -0.171311,-0.143747 -0.369342,-0.198375 -0.197901,-0.05452 -0.406415,-0.03725 z m -0.407655,0.625146 q 0.155225,-0.09708 0.312139,-0.142895 0.156913,-0.04582 0.309216,-0.02487 0.152302,0.02095 0.289377,0.135969 0.122908,0.103132 0.174753,0.227553 0.05174,0.124552 0.04943,0.262097 -0.0023,0.137786 -0.05074,0.281313 -0.04844,0.143768 -0.126714,0.288203 -0.07839,0.144565 -0.178574,0.284475 -0.100296,0.14004 -0.205519,0.265441 -0.0984,0.117268 -0.224414,0.250929 -0.125992,0.133902 -0.269021,0.255074 -0.143007,0.121414 -0.299112,0.219543 -0.156105,0.09813 -0.312138,0.142896 -0.156143,0.0449 -0.308446,0.02395 -0.152302,-0.02095 -0.289377,-0.13597 -0.122908,-0.103132 -0.174643,-0.227684 -0.05185,-0.124421 -0.05044,-0.261157 0.0014,-0.136496 0.05075,-0.281314 0.04934,-0.144576 0.127725,-0.289142 0.07828,-0.144434 0.177693,-0.283425 0.09931,-0.138861 0.20453,-0.264261 0.09851,-0.117399 0.224502,-0.251301 0.126013,-0.133661 0.269791,-0.255993 0.143909,-0.122222 0.299243,-0.219433 z"
         stroke="#191919"
         stroke-width="0.35 px"
         style="fill:#000000;fill-opacity:1;fill-rule:evenodd;stroke:none;stroke-width:0.35;stroke-linecap:square;stroke-miterlimit:4;stroke-dasharray:none" />
      <title
         id="title10">b'ShapeL50'</title>
    </g>
    <g
       id="ShapeString010"
       transform="matrix(1,0,0,-1,-29.132554,62.633725)"
       style="fill:#000000;fill-opacity:1;stroke:none">
      <path
         id="ShapeString010_f0000"
         d="m 55.623806,45.080395 0.355074,-0.423161 -0.604441,-0.507186 1.005897,-1.198781 -0.34472,-0.289254 -2.933251,-0.799578 -0.279253,0.414583 2.511999,0.683045 0.438911,0.04887 -0.726988,0.866391 -0.818776,-0.687034 -0.320838,0.451888 0.78454,0.658307 -0.329649,0.39286 0.352721,0.244556 0.304333,-0.36269 z"
         stroke="#191919"
         stroke-width="0.35 px"
         style="fill:#000000;fill-opacity:1;fill-rule:evenodd;stroke:none;stroke-width:0.35;stroke-linecap:square;stroke-miterlimit:4;stroke-dasharray:none" />
      <path
         id="ShapeString010_f0001"
         d="m 54.210863,46.337516 q -0.01727,-0.208515 -0.09638,-0.420856 -0.07935,-0.212321 -0.203235,-0.414181 -0.12402,-0.201971 -0.282554,-0.383055 -0.158665,-0.181194 -0.335878,-0.329894 -0.18128,-0.152112 -0.386747,-0.28339 -0.205708,-0.131257 -0.420804,-0.222556 -0.215096,-0.0913 -0.433618,-0.135626 -0.218632,-0.0442 -0.424769,-0.02337 -0.206247,0.02096 -0.394917,0.115012 -0.188802,0.09394 -0.346086,0.281385 -0.143747,0.171311 -0.198265,0.369211 -0.05463,0.198032 -0.03736,0.406546 0.01727,0.208515 0.09662,0.420835 0.07911,0.212342 0.203126,0.414312 0.123888,0.201861 0.283471,0.383826 0.159583,0.181964 0.334829,0.329013 0.18128,0.152112 0.386988,0.283369 0.205467,0.131278 0.420563,0.222577 0.215096,0.0913 0.433728,0.135494 0.218522,0.04433 0.424769,0.02337 0.206137,-0.02083 0.395819,-0.11582 0.189551,-0.0951 0.345074,-0.280446 0.143747,-0.171311 0.198375,-0.369342 0.05452,-0.197901 0.03725,-0.406415 z m -0.625146,-0.407654 q 0.09708,0.155224 0.142895,0.312138 0.04582,0.156913 0.02487,0.309216 -0.02095,0.152302 -0.13597,0.289377 -0.103132,0.122908 -0.227553,0.174753 -0.124552,0.05174 -0.262097,0.04943 -0.137786,-0.0023 -0.281313,-0.05074 -0.143768,-0.04844 -0.288203,-0.126714 -0.144565,-0.07839 -0.284475,-0.178574 -0.14004,-0.100296 -0.265441,-0.205519 -0.117267,-0.0984 -0.250929,-0.224414 -0.133902,-0.125992 -0.255074,-0.269021 -0.121414,-0.143007 -0.219543,-0.299112 -0.09813,-0.156104 -0.142896,-0.312138 -0.0449,-0.156143 -0.02395,-0.308446 0.02095,-0.152302 0.135969,-0.289377 0.103132,-0.122908 0.227684,-0.174643 0.124421,-0.05185 0.261158,-0.05044 0.136495,0.0014 0.281313,0.05074 0.144576,0.04934 0.289142,0.127725 0.144434,0.07828 0.283425,0.177693 0.138861,0.09931 0.264261,0.20453 0.117399,0.09851 0.251301,0.224502 0.133661,0.126013 0.255993,0.269791 0.122222,0.143909 0.219433,0.299243 z"
         stroke="#191919"
         stroke-width="0.35 px"
         style="fill:#000000;fill-opacity:1;fill-rule:evenodd;stroke:none;stroke-width:0.35;stroke-linecap:square;stroke-miterlimit:4;stroke-dasharray:none" />
      <title
         id="title9">b'ShapeR40'</title>
    </g>
    <g
       id="ShapeString009"
       transform="matrix(1,0,0,-1,-29.132554,62.633725)"
       style="fill:#000000;fill-opacity:1;stroke:none">
      <path
         id="ShapeString009_f0000"
         d="m 54.440372,-46.490756 -0.355074,-0.423161 -0.604441,0.507186 -1.005896,-1.198781 -0.34472,0.289255 -1.296784,2.749842 0.359792,0.347002 1.108873,-2.355226 0.124342,-0.423757 0.726988,0.866391 -0.818776,0.687034 0.389311,0.394434 0.784539,-0.658307 0.329649,0.39286 0.30209,-0.304895 -0.304334,-0.362691 z"
         stroke="#191919"
         stroke-width="0.35 px"
         style="fill:#000000;fill-opacity:1;fill-rule:evenodd;stroke:none;stroke-width:0.35;stroke-linecap:square;stroke-miterlimit:4;stroke-dasharray:none" />
      <path
         id="ShapeString009_f0001"
         d="m 55.43304,-44.880982 q -0.208346,-0.0192 -0.431198,0.02183 -0.222873,0.04127 -0.44318,0.128226 -0.220438,0.08706 -0.4263,0.211744 -0.205994,0.12479 -0.383207,0.27349 -0.18128,0.152112 -0.346242,0.331661 -0.164984,0.179791 -0.292247,0.375765 -0.127263,0.195974 -0.208862,0.403479 -0.08149,0.207636 -0.09677,0.414258 -0.01517,0.206753 0.04469,0.408889 0.05973,0.202246 0.217014,0.389691 0.143746,0.17131 0.329173,0.259365 0.185538,0.08818 0.393883,0.107386 0.208346,0.0192 0.431219,-0.02207 0.222852,-0.04103 0.44329,-0.128094 0.220307,-0.08695 0.427219,-0.212515 0.206911,-0.125561 0.382157,-0.272609 0.18128,-0.152112 0.346263,-0.331903 0.164963,-0.179549 0.292226,-0.375523 0.127263,-0.195974 0.208752,-0.403611 0.0816,-0.207504 0.09677,-0.414258 0.01528,-0.206622 -0.04533,-0.409917 -0.06074,-0.203185 -0.216264,-0.388531 -0.143746,-0.171311 -0.329283,-0.259496 -0.185428,-0.08805 -0.393773,-0.107255 z m -0.510017,0.54486 q 0.169724,-0.06865 0.33221,-0.08652 0.162486,-0.01787 0.308836,0.02921 0.146351,0.04708 0.26137,0.184154 0.103132,0.122908 0.132585,0.254441 0.02932,0.131644 0.0032,0.266698 -0.02618,0.135296 -0.09882,0.268228 -0.07267,0.133173 -0.174835,0.261821 -0.1023,0.128757 -0.225259,0.249144 -0.12309,0.120497 -0.248491,0.22572 -0.117268,0.0984 -0.264577,0.208148 -0.14733,0.10999 -0.309227,0.204484 -0.161918,0.09474 -0.332691,0.164268 -0.170774,0.06953 -0.33221,0.08652 -0.161568,0.0171 -0.307918,-0.02998 -0.146351,-0.04708 -0.26137,-0.184154 -0.103132,-0.122908 -0.132453,-0.254551 -0.02945,-0.131533 -0.0043,-0.265949 0.02511,-0.134173 0.09882,-0.268227 0.07369,-0.133813 0.175994,-0.26257 0.102169,-0.128648 0.22421,-0.248264 0.12191,-0.119506 0.24731,-0.22473 0.117399,-0.09851 0.26473,-0.208499 0.147309,-0.109748 0.310145,-0.205255 0.162946,-0.09538 0.332801,-0.164136 z"
         stroke="#191919"
         stroke-width="0.35 px"
         style="fill:#000000;fill-opacity:1;fill-rule:evenodd;stroke:none;stroke-width:0.35;stroke-linecap:square;stroke-miterlimit:4;stroke-dasharray:none" />
      <title
         id="title8">b'ShapeL40'</title>
    </g>
    <g
       id="ShapeString008"
       transform="matrix(1,0,0,-1,-29.132554,62.633725)"
       style="fill:#000000;fill-opacity:1;stroke:none">
      <path
         id="ShapeString008_f0000"
         d="m 59.169084,32.741598 0.31779,0.183476 q 0.106594,0.02496 0.242856,0.01703 0.136029,-0.0079 0.286663,-0.03795 0.150399,-0.03002 0.309008,-0.07666 0.158608,-0.04664 0.307435,-0.100302 l 0.341645,-0.203733 q -0.01778,0.02018 -0.0392,0.05488 -0.02156,0.03461 -0.03997,0.06649 -0.127568,0.220955 -0.182461,0.442743 -0.05513,0.221851 -0.02517,0.425794 0.02972,0.204006 0.153149,0.383028 0.123196,0.179083 0.35379,0.312217 0.2214,0.127825 0.449069,0.149929 0.227669,0.0221 0.450293,-0.03918 0.222476,-0.06137 0.434501,-0.194017 0.212026,-0.132649 0.403912,-0.311923 0.191737,-0.179359 0.357929,-0.39324 0.166044,-0.213966 0.294897,-0.437145 l -0.370137,-0.213699 q -0.115983,0.185134 -0.248405,0.351483 -0.132509,0.166498 -0.276137,0.302255 -0.143628,0.135758 -0.294289,0.234039 -0.15081,0.0982 -0.3036,0.145028 -0.153023,0.04689 -0.304089,0.0356 -0.151214,-0.01138 -0.296836,-0.09545 -0.163863,-0.09461 -0.232852,-0.227169 -0.06907,-0.132414 -0.063,-0.289854 0.0059,-0.157524 0.07383,-0.335417 0.06776,-0.177979 0.175636,-0.364827 0.04204,-0.07281 0.09476,-0.156259 0.05273,-0.08345 0.09664,-0.149241 L 61.285892,32.01696 q -0.121856,0.05421 -0.270965,0.113845 -0.149257,0.05955 -0.307595,0.117017 -0.158486,0.05738 -0.315858,0.107698 -0.157371,0.05032 -0.294333,0.08651 -0.137196,0.03626 -0.246096,0.05228 -0.108986,0.01617 -0.171567,0.0044 l 0.292449,-0.292837 0.547089,-0.947586 -0.389915,-0.179444 z"
         stroke="#191919"
         stroke-width="0.35 px"
         style="fill:#000000;fill-opacity:1;fill-rule:evenodd;stroke:none;stroke-width:0.35;stroke-linecap:square;stroke-miterlimit:4;stroke-dasharray:none" />
      <path
         id="ShapeString008_f0001"
         d="m 61.484898,36.072271 q -0.05322,-0.202347 -0.167993,-0.397726 -0.11501,-0.195317 -0.272069,-0.372598 -0.157208,-0.177366 -0.344778,-0.32817 -0.187718,-0.150889 -0.388061,-0.266557 -0.204939,-0.118322 -0.430081,-0.211927 -0.225376,-0.09354 -0.453058,-0.146103 -0.227682,-0.05256 -0.450581,-0.05827 -0.222985,-0.0056 -0.422373,0.05075 -0.199474,0.05646 -0.368946,0.181842 -0.169621,0.125298 -0.291967,0.337207 -0.111815,0.19367 -0.131139,0.398031 -0.01941,0.204509 0.03381,0.406856 0.05322,0.202348 0.168227,0.397664 0.114776,0.19538 0.271984,0.372746 0.157059,0.177281 0.345815,0.32877 0.188757,0.151489 0.386875,0.265872 0.204939,0.118322 0.430315,0.211864 0.225142,0.09361 0.452824,0.146166 0.227682,0.05256 0.450667,0.05812 0.2229,0.0057 0.422373,-0.05075 0.199388,-0.05631 0.369694,-0.182793 0.170157,-0.126571 0.291133,-0.336107 0.111815,-0.19367 0.131225,-0.398179 0.01932,-0.204361 -0.03389,-0.406709 z m -0.686437,-0.292905 q 0.12256,0.136008 0.194927,0.282582 0.07237,0.146575 0.07818,0.300201 0.0058,0.153627 -0.08365,0.308592 -0.08022,0.13895 -0.19375,0.211613 -0.113676,0.07258 -0.249532,0.09419 -0.13609,0.02167 -0.285852,-0.0011 -0.149995,-0.02273 -0.305827,-0.07474 -0.155982,-0.05209 -0.311163,-0.126462 -0.155329,-0.07446 -0.297096,-0.156304 -0.132573,-0.07654 -0.286086,-0.17743 -0.153746,-0.100827 -0.297914,-0.220641 -0.144402,-0.119752 -0.268148,-0.256445 -0.123746,-0.136693 -0.194927,-0.282582 -0.07133,-0.145975 -0.07714,-0.299602 -0.0058,-0.153627 0.08365,-0.308592 0.08022,-0.138949 0.193899,-0.211527 0.113527,-0.07266 0.248431,-0.09502 0.13467,-0.0223 0.285851,0.0011 0.150947,0.02348 0.306929,0.07558 0.155832,0.05201 0.309975,0.125777 0.153995,0.07368 0.295762,0.155533 0.132722,0.07663 0.286468,0.177454 0.153513,0.100889 0.298953,0.22124 0.145354,0.120499 0.268062,0.256593 z"
         stroke="#191919"
         stroke-width="0.35 px"
         style="fill:#000000;fill-opacity:1;fill-rule:evenodd;stroke:none;stroke-width:0.35;stroke-linecap:square;stroke-miterlimit:4;stroke-dasharray:none" />
      <title
         id="title7">b'ShapeR30'</title>
    </g>
    <g
       id="ShapeString003"
       transform="matrix(1,0,0,-1,-29.132554,62.633725)"
       style="fill:#000000;fill-opacity:1;stroke:none">
      <path
         id="ShapeString003_f0000"
         d="m 71.725685,-0.74571918 q -0.14726,-0.14863014 -0.344349,-0.26044522 -0.197261,-0.1116438 -0.421918,-0.1866438 -0.224829,-0.075 -0.462671,-0.1118151 -0.238014,-0.036815 -0.46935,-0.036815 -0.236644,0 -0.478424,0.031507 -0.241952,0.031678 -0.465411,0.1 -0.223459,0.068322 -0.41935,0.1748288 -0.19589,0.10667804 -0.340411,0.25513695 -0.14452,0.14863013 -0.228596,0.34195205 Q 68.010959,-0.24469178 68.010959,0 q 0,0.22363014 0.08545,0.41027397 0.08544,0.18681507 0.232706,0.33544521 0.14726,0.14863014 0.34452,0.26027402 0.197089,0.111815 0.421918,0.186815 0.224657,0.075 0.46387,0.1118151 0.239212,0.036815 0.467979,0.036815 0.236644,0 0.478596,-0.031678 0.241781,-0.031507 0.46524,-0.099829 0.223459,-0.068322 0.419349,-0.175 Q 71.586473,0.92842466 71.730993,0.77979452 71.875514,0.63133562 71.95976,0.43664384 72.043836,0.24195205 72.043836,0 q 0,-0.22363014 -0.08545,-0.41044521 -0.08544,-0.18664383 -0.232705,-0.33527397 z m -0.740925,0.0895548 q 0.174144,0.0565069 0.310103,0.14726027 0.135959,0.0907534 0.217808,0.22089041 0.08185,0.13013699 0.08185,0.30907534 0,0.16044521 -0.06199,0.28013699 -0.06216,0.11969178 -0.169007,0.20633562 -0.10702,0.0868151 -0.248116,0.14195205 -0.141267,0.0553082 -0.302226,0.0881849 -0.16113,0.0328767 -0.332706,0.0460616 -0.171746,0.0131849 -0.335445,0.0131849 -0.153082,0 -0.336472,-0.0106164 Q 69.625,0.77585616 69.44024,0.74417808 69.255308,0.71267123 69.079795,0.65616438 68.904281,0.59965753 68.769692,0.50890411 q -0.13476,-0.0907534 -0.21661,-0.22089041 -0.08185,-0.13013699 -0.08185,-0.30907534 0,-0.16044521 0.06216,-0.28013699 0.06199,-0.11969178 0.167637,-0.20650685 0.10548,-0.0866438 0.248117,-0.14195205 0.142466,-0.055137 0.303596,-0.0880137 0.160959,-0.0328767 0.331335,-0.0460616 0.170206,-0.0131849 0.333904,-0.0131849 0.153254,0 0.336816,0.0104452 0.18339,0.0106164 0.36952,0.0421233 0.18613,0.0316781 0.360445,0.0881849 z"
         stroke="#191919"
         stroke-width="0.35 px"
         style="fill:#000000;fill-opacity:1;fill-rule:evenodd;stroke:none;stroke-width:0.35;stroke-linecap:square;stroke-miterlimit:4;stroke-dasharray:none" />
      <title
         id="title1">b'Shape0'</title>
    </g>
    <g
       id="ShapeString004"
       transform="matrix(1,0,0,-1,-29.132554,62.633725)"
       style="fill:#000000;fill-opacity:1;stroke:none">
      <path
         id="ShapeString004_f0000"
         d="m 69.725113,-14.108296 -2.499118,0.440662 -0.560682,0.253785 0.418991,-0.437103 0.389687,-0.634847 -0.362478,-0.224543 -0.877312,1.3779 0.120278,0.379399 3.466557,-0.611248 0.11189,0.63456 0.420904,-0.07422 -0.319703,-1.813126 -0.420904,0.07422 z"
         stroke="#191919"
         stroke-width="0.35 px"
         style="fill:#000000;fill-opacity:1;fill-rule:evenodd;stroke:none;stroke-width:0.35;stroke-linecap:square;stroke-miterlimit:4;stroke-dasharray:none" />
      <path
         id="ShapeString004_f0001"
         d="m 70.342401,-11.489051 q -0.170833,-0.1208 -0.384344,-0.196692 -0.21365,-0.07569 -0.447918,-0.110544 -0.234437,-0.03482 -0.475059,-0.02977 -0.240791,0.0051 -0.468612,0.04525 -0.233049,0.04109 -0.465685,0.114106 -0.232775,0.07321 -0.440976,0.179298 -0.2082,0.106088 -0.382619,0.244992 -0.17439,0.139074 -0.290936,0.310373 -0.116515,0.171468 -0.165743,0.376452 -0.0494,0.205014 -0.0069,0.445989 0.03883,0.2202325 0.155391,0.3892034 0.116587,0.1691395 0.287419,0.2899401 0.170833,0.1208007 0.384483,0.1964945 0.213511,0.075892 0.447948,0.1107117 0.234268,0.034849 0.476239,0.029566 0.241971,-0.00528 0.467263,-0.045008 0.233048,-0.041093 0.465824,-0.1143041 0.232636,-0.073013 0.440837,-0.1791002 0.2082,-0.1060871 0.38259,-0.2451606 0.174419,-0.1389047 0.290935,-0.3103726 0.116545,-0.1712992 0.165704,-0.3776622 0.04899,-0.206334 0.007,-0.44461 -0.03883,-0.220233 -0.155421,-0.389372 -0.116557,-0.168971 -0.287389,-0.289772 z m -0.714118,0.216855 q 0.181311,0.02541 0.330963,0.09117 0.149653,0.06577 0.252857,0.179713 0.103204,0.113947 0.134276,0.290167 0.02786,0.158007 -0.0124,0.286644 -0.04043,0.128667 -0.13061,0.232549 -0.09032,0.10408 -0.219697,0.18288 -0.129517,0.078999 -0.282321,0.1393267 -0.152974,0.060357 -0.319653,0.1031356 -0.166848,0.042808 -0.328059,0.071234 -0.150757,0.026582 -0.333205,0.047973 -0.182586,0.021589 -0.370041,0.022475 -0.187593,0.00108 -0.370252,-0.024086 -0.18266,-0.025171 -0.330963,-0.091174 -0.148472,-0.065974 -0.251676,-0.1799207 -0.103204,-0.1139476 -0.134277,-0.2901676 -0.02786,-0.158007 0.01257,-0.286674 0.04026,-0.128637 0.129231,-0.23248 0.08883,-0.103643 0.219697,-0.18288 0.130727,-0.07904 0.2837,-0.139396 0.152805,-0.06033 0.318304,-0.102897 0.16533,-0.04254 0.326542,-0.07097 0.150925,-0.02661 0.333512,-0.0482 0.182447,-0.02139 0.371221,-0.02268 0.188803,-0.0011 0.370282,0.02426 z"
         stroke="#191919"
         stroke-width="0.35 px"
         style="fill:#000000;fill-opacity:1;fill-rule:evenodd;stroke:none;stroke-width:0.35;stroke-linecap:square;stroke-miterlimit:4;stroke-dasharray:none" />
      <title
         id="title2">b'ShapeL10'</title>
    </g>
    <g
       id="ShapeString005"
       transform="matrix(1,0,0,-1,-29.132554,62.633725)"
       style="fill:#000000;fill-opacity:1;stroke:none">
      <path
         id="ShapeString005_f0000"
         d="m 70.37231,10.437863 -2.499119,-0.4406617 -0.613668,0.046716 0.543221,-0.2674381 0.583316,-0.4632807 -0.263819,-0.3349761 -1.295673,0.9947444 -0.01674,0.3976545 3.466557,0.611247 -0.11189,0.634561 0.420904,0.07422 0.319703,-1.8131242 -0.420904,-0.074217 z"
         stroke="#191919"
         stroke-width="0.35 px"
         style="fill:#000000;fill-opacity:1;fill-rule:evenodd;stroke:none;stroke-width:0.35;stroke-linecap:square;stroke-miterlimit:4;stroke-dasharray:none" />
      <path
         id="ShapeString005_f0001"
         d="m 70.056535,13.110273 q -0.119213,-0.171943 -0.293892,-0.316284 -0.174876,-0.144201 -0.383097,-0.257073 -0.20839,-0.112902 -0.436226,-0.190459 -0.228005,-0.07759 -0.455826,-0.117757 -0.233049,-0.04109 -0.476627,-0.05205 -0.243778,-0.01082 -0.475706,0.01766 -0.231928,0.02848 -0.443337,0.09935 -0.211439,0.07104 -0.379543,0.192149 -0.168135,0.121277 -0.284503,0.297062 -0.116536,0.175756 -0.159027,0.41673 -0.03883,0.220233 0.0129,0.418878 0.05171,0.198815 0.170921,0.370758 0.119214,0.171944 0.29409,0.316146 0.174679,0.14434 0.383068,0.257242 0.208221,0.112872 0.437406,0.190666 0.229186,0.0778 0.454477,0.11752 0.233049,0.04109 0.476826,0.05191 0.243579,0.01096 0.475507,-0.01752 0.231928,-0.02848 0.443367,-0.09952 0.211409,-0.07087 0.379543,-0.192149 0.168105,-0.121108 0.284879,-0.298213 0.116606,-0.177134 0.158621,-0.41541 0.03883,-0.220233 -0.01287,-0.419047 -0.05174,-0.198646 -0.170951,-0.37059 z m -0.745219,-0.04047 q 0.161686,0.08589 0.27982,0.198872 0.118134,0.112984 0.176142,0.255357 0.05801,0.142373 0.02693,0.318593 -0.02786,0.158007 -0.109689,0.265117 -0.082,0.10708 -0.202269,0.173853 -0.12047,0.06691 -0.268997,0.09671 -0.148725,0.02994 -0.312948,0.03436 -0.164391,0.0044 -0.335649,-0.01241 -0.171427,-0.01684 -0.332639,-0.04527 -0.150756,-0.02658 -0.329517,-0.06888 -0.178959,-0.04216 -0.355412,-0.105442 -0.176651,-0.06314 -0.339686,-0.149267 -0.163035,-0.08613 -0.27982,-0.198872 -0.116954,-0.112775 -0.174961,-0.255148 -0.05801,-0.142373 -0.02694,-0.318593 0.02786,-0.158008 0.109859,-0.265087 0.08183,-0.10711 0.200949,-0.17426 0.118923,-0.06701 0.268997,-0.09671 0.149876,-0.02956 0.314267,-0.03396 0.164223,-0.0044 0.334301,0.01217 0.169909,0.01657 0.33112,0.045 0.150926,0.02661 0.329885,0.06877 0.17876,0.0423 0.356592,0.10565 0.177801,0.06352 0.339656,0.149435 z"
         stroke="#191919"
         stroke-width="0.35 px"
         style="fill:#000000;fill-opacity:1;fill-rule:evenodd;stroke:none;stroke-width:0.35;stroke-linecap:square;stroke-miterlimit:4;stroke-dasharray:none" />
      <title
         id="title3">b'ShapeR10'</title>
    </g>
    <g
       id="ShapeString"
       transform="matrix(1,0,0,-1,-29.132554,62.633725)"
       style="fill:#000000;fill-opacity:1;stroke:none">
      <path
         id="ShapeString_f0000"
         d="m 65.473386,-26.633563 q -0.131385,0.203256 -0.249502,0.404416 -0.118278,0.201219 -0.220526,0.392411 -0.102247,0.191193 -0.186728,0.350591 -0.0923,0.176458 -0.173085,0.334508 -0.08072,0.158212 -0.170113,0.288601 -0.08949,0.130609 -0.195177,0.22775 -0.105786,0.09736 -0.251406,0.150362 -0.118427,0.0431 -0.2394,0.03666 -0.121075,-0.0062 -0.228075,-0.05839 -0.107103,-0.05195 -0.193107,-0.146559 -0.08617,-0.09455 -0.134775,-0.228106 -0.05488,-0.150769 -0.05406,-0.275705 7.09e-4,-0.124716 0.03732,-0.231887 0.03651,-0.106952 0.09736,-0.197614 0.06069,-0.0906 0.125762,-0.173147 l -0.275047,-0.294584 q -0.137319,0.122869 -0.236053,0.272147 -0.09889,0.149337 -0.148101,0.321043 -0.04931,0.171924 -0.04122,0.364869 0.008,0.193165 0.08535,0.405722 0.09083,0.249565 0.250694,0.412417 0.159919,0.163012 0.35327,0.245158 0.19325,0.08236 0.401472,0.08621 0.208119,0.0041 0.395414,-0.06411 0.19003,-0.06917 0.335744,-0.202014 0.145713,-0.132849 0.261619,-0.294026 0.115963,-0.161016 0.207508,-0.331549 0.0916,-0.170372 0.173134,-0.314847 0.103654,-0.183322 0.20248,-0.364888 0.09872,-0.181346 0.195317,-0.349525 0.09665,-0.168018 0.189284,-0.316534 0.09247,-0.148457 0.183902,-0.265739 l 0.602693,1.655887 0.401622,-0.146179 -0.813176,-2.234183 -0.414495,0.150863 q -0.144454,0.186875 -0.275898,0.38997 z"
         stroke="#191919"
         stroke-width="0.35 px"
         style="fill:#000000;fill-opacity:1;fill-rule:evenodd;stroke:none;stroke-width:0.35;stroke-linecap:square;stroke-miterlimit:4;stroke-dasharray:none" />
      <path
         id="ShapeString_f0001"
         d="m 67.22337,-23.461149 q -0.189214,-0.0893 -0.41266,-0.126964 -0.223548,-0.03744 -0.460309,-0.03108 -0.236921,0.0064 -0.473012,0.05317 -0.236251,0.04681 -0.453635,0.125932 -0.222373,0.08094 -0.438796,0.193238 -0.216526,0.11252 -0.403142,0.253149 -0.186615,0.140629 -0.334264,0.307711 -0.147591,0.167243 -0.23262,0.356178 -0.08497,0.189096 -0.09786,0.399514 -0.01305,0.210477 0.07064,0.440412 0.07649,0.210144 0.220615,0.356308 0.144186,0.146325 0.3334,0.235625 0.189214,0.0893 0.412763,0.126745 0.223446,0.03766 0.460367,0.03124 0.236761,-0.0064 0.474138,-0.05358 0.237378,-0.04722 0.452349,-0.125463 0.222372,-0.08094 0.438898,-0.193457 0.216424,-0.112301 0.403039,-0.25293 0.186615,-0.140629 0.334206,-0.307872 0.147649,-0.167082 0.23262,-0.356178 0.08503,-0.188935 0.09761,-0.400699 0.01242,-0.211706 -0.07034,-0.439067 -0.07649,-0.210143 -0.220673,-0.356468 -0.144128,-0.146164 -0.333342,-0.235464 z m -0.665612,0.337565 q 0.182968,-0.0065 0.341767,0.03232 0.158799,0.03878 0.280222,0.133074 0.121423,0.09429 0.182623,0.262442 0.05488,0.150769 0.03757,0.284443 -0.01747,0.133733 -0.08824,0.251696 -0.07087,0.118182 -0.184603,0.218252 -0.113831,0.100289 -0.253838,0.186234 -0.140168,0.086 -0.296887,0.157076 -0.156879,0.07113 -0.310706,0.127119 -0.14385,0.05236 -0.319812,0.105104 -0.176064,0.05297 -0.360516,0.08639 -0.184555,0.03364 -0.36881,0.04057 -0.184256,0.0069 -0.341767,-0.03232 -0.157673,-0.03919 -0.279096,-0.133484 -0.121423,-0.09429 -0.182623,-0.262442 -0.05488,-0.150769 -0.0374,-0.284502 0.01731,-0.133674 0.0869,-0.251388 0.06948,-0.117495 0.184603,-0.218252 0.115016,-0.100538 0.255184,-0.186542 0.140008,-0.08594 0.2956,-0.156607 0.155431,-0.0706 0.309258,-0.126592 0.144011,-0.05241 0.320075,-0.105382 0.175961,-0.05275 0.361642,-0.0868 0.18574,-0.03389 0.368869,-0.04041 z"
         stroke="#191919"
         stroke-width="0.35 px"
         style="fill:#000000;fill-opacity:1;fill-rule:evenodd;stroke:none;stroke-width:0.35;stroke-linecap:square;stroke-miterlimit:4;stroke-dasharray:none" />
      <title
         id="title4">b'ShapeL20'</title>
    </g>
    <g
       id="ShapeString006"
       transform="matrix(1,0,0,-1,-29.132554,62.633725)"
       style="fill:#000000;fill-opacity:1;stroke:none">
      <path
         id="ShapeString006_f0000"
         d="m 67.318479,21.564211 q -0.231297,0.07125 -0.451083,0.149423 -0.219947,0.07812 -0.421169,0.158854 -0.201222,0.08074 -0.368398,0.148541 -0.184134,0.07584 -0.347608,0.144992 -0.163534,0.06931 -0.315824,0.111734 -0.152509,0.04253 -0.295909,0.04901 -0.143619,0.0066 -0.289239,-0.04642 -0.118427,-0.0431 -0.206954,-0.1258 -0.08875,-0.0826 -0.137182,-0.191335 -0.04865,-0.108638 -0.05372,-0.236398 -0.0052,-0.127819 0.04338,-0.261371 0.05487,-0.150769 0.135804,-0.245953 0.08071,-0.09508 0.177647,-0.153645 0.09672,-0.05846 0.201604,-0.0888 0.104727,-0.0304 0.207636,-0.0518 l -0.02134,-0.402462 q -0.184172,0.0059 -0.355761,0.05674 -0.171749,0.05083 -0.319814,0.150735 -0.148284,0.100007 -0.26611,0.253011 -0.118046,0.153105 -0.195411,0.365663 -0.09083,0.249565 -0.07305,0.477072 0.01772,0.227669 0.113036,0.41488 0.09509,0.187314 0.25213,0.324101 0.156816,0.13689 0.344111,0.20506 0.19003,0.06917 0.387047,0.06106 0.197017,-0.0081 0.389408,-0.05707 0.192333,-0.0488 0.372076,-0.120597 0.179685,-0.07163 0.335008,-0.129898 0.197241,-0.07381 0.389655,-0.149369 0.192194,-0.07546 0.374291,-0.142204 0.182039,-0.06658 0.348465,-0.12081 0.166264,-0.05428 0.31169,-0.08536 l -0.602694,1.655886 0.401622,0.146179 0.813177,-2.234184 -0.414495,-0.150863 q -0.230779,0.0503 -0.462018,0.12139 z"
         stroke="#191919"
         stroke-width="0.35 px"
         style="fill:#000000;fill-opacity:1;fill-rule:evenodd;stroke:none;stroke-width:0.35;stroke-linecap:square;stroke-miterlimit:4;stroke-dasharray:none" />
      <path
         id="ShapeString006_f0001"
         d="m 66.619857,25.119289 q -0.08754,-0.190033 -0.234505,-0.362513 -0.14718,-0.172378 -0.332637,-0.319692 -0.185619,-0.147373 -0.396526,-0.263315 -0.211068,-0.116001 -0.428453,-0.195122 -0.222372,-0.08094 -0.460348,-0.134024 -0.238195,-0.05298 -0.471545,-0.06521 -0.23335,-0.01223 -0.453854,0.02086 -0.220563,0.03325 -0.407144,0.123323 -0.18664,0.09024 -0.331764,0.243145 -0.145286,0.152849 -0.228976,0.382784 -0.07649,0.210144 -0.06003,0.414756 0.0164,0.204772 0.103943,0.394805 0.08755,0.190033 0.234724,0.36241 0.146961,0.172481 0.332579,0.319854 0.185458,0.147314 0.397652,0.263724 0.212195,0.116411 0.427165,0.194654 0.222373,0.08094 0.460568,0.133921 0.237976,0.05309 0.471326,0.06531 0.23335,0.01223 0.453913,-0.02102 0.220504,-0.03308 0.407143,-0.123323 0.186581,-0.09008 0.332336,-0.244213 0.145593,-0.154195 0.228346,-0.381556 0.07649,-0.210143 0.06009,-0.414916 -0.01646,-0.204612 -0.104001,-0.394644 z m -0.726871,-0.169258 q 0.144315,0.11266 0.241035,0.244441 0.09672,0.131781 0.129124,0.282064 0.0324,0.150283 -0.0288,0.31843 -0.05487,0.150769 -0.15406,0.242042 -0.09935,0.09121 -0.229386,0.136088 -0.130259,0.04498 -0.281704,0.04853 -0.151664,0.0037 -0.31416,-0.0205 -0.162657,-0.02422 -0.328395,-0.07051 -0.165899,-0.04635 -0.319725,-0.102339 -0.14385,-0.05236 -0.31255,-0.125057 -0.168919,-0.0726 -0.331702,-0.165556 -0.163003,-0.09286 -0.308605,-0.205986 -0.145603,-0.113128 -0.241036,-0.24444 -0.09559,-0.131371 -0.127997,-0.281654 -0.0324,-0.150283 0.0288,-0.31843 0.05487,-0.150769 0.154221,-0.241984 0.09918,-0.09127 0.228157,-0.136718 0.128752,-0.04534 0.281704,-0.04853 0.152732,-0.0031 0.315389,0.02113 0.162496,0.02416 0.327107,0.07004 0.164451,0.04582 0.318277,0.101812 0.144011,0.05242 0.31293,0.125013 0.1687,0.0727 0.332829,0.165966 0.164071,0.09343 0.308547,0.206146 z"
         stroke="#191919"
         stroke-width="0.35 px"
         style="fill:#000000;fill-opacity:1;fill-rule:evenodd;stroke:none;stroke-width:0.35;stroke-linecap:square;stroke-miterlimit:4;stroke-dasharray:none" />
      <title
         id="title5">b'ShapeR20'</title>
    </g>
    <g
       id="ShapeString007"
       transform="matrix(1,0,0,-1,-29.132554,62.633725)"
       style="fill:#000000;fill-opacity:1;stroke:none">
      <path
         id="ShapeString007_f0000"
         d="m 58.261721,-34.313197 0.31779,-0.183476 q 0.07492,-0.07983 0.136178,-0.201803 0.0612,-0.121739 0.110464,-0.267233 0.0492,-0.145261 0.08812,-0.305937 0.03892,-0.160677 0.06685,-0.316399 l -0.0056,-0.397739 q 0.0086,0.02549 0.02793,0.06138 0.01919,0.03598 0.0376,0.06786 0.127569,0.220955 0.292197,0.379387 0.164566,0.158666 0.356162,0.234699 0.191533,0.07627 0.408285,0.05888 0.216689,-0.01715 0.447283,-0.150283 0.2214,-0.127825 0.354378,-0.31394 0.132977,-0.186115 0.191218,-0.409554 0.05809,-0.223354 0.04923,-0.473298 -0.0089,-0.249944 -0.06818,-0.505759 -0.05946,-0.255729 -0.161591,-0.506596 -0.102278,-0.250781 -0.231131,-0.47396 l -0.370137,0.213698 q 0.10234,0.193011 0.180191,0.390867 0.07794,0.198004 0.123692,0.390269 0.04576,0.192264 0.05554,0.371881 0.0096,0.179703 -0.0262,0.335439 -0.0359,0.155969 -0.121212,0.28115 -0.08546,0.125266 -0.231083,0.209341 -0.163863,0.09461 -0.31316,0.08807 -0.149211,-0.0064 -0.28252,-0.09037 -0.133458,-0.08389 -0.253564,-0.231651 -0.120254,-0.14767 -0.228131,-0.334518 -0.04204,-0.07281 -0.08794,-0.160197 -0.0459,-0.08739 -0.08092,-0.158317 l -0.350859,0.202569 q -0.01398,0.132636 -0.03689,0.291585 -0.02306,0.159034 -0.05246,0.324893 -0.02955,0.165945 -0.06466,0.327391 -0.03511,0.161445 -0.07224,0.298156 -0.0372,0.136945 -0.07777,0.239265 -0.04049,0.102467 -0.08201,0.150758 l -0.10738,-0.399686 -0.54709,-0.947586 -0.350359,0.247954 z"
         stroke="#191919"
         stroke-width="0.35 px"
         style="fill:#000000;fill-opacity:1;fill-rule:evenodd;stroke:none;stroke-width:0.35;stroke-linecap:square;stroke-miterlimit:4;stroke-dasharray:none" />
      <path
         id="ShapeString007_f0001"
         d="m 62.304076,-34.653413 q -0.201846,-0.05509 -0.428438,-0.05338 -0.226654,0.0019 -0.458713,0.04932 -0.232208,0.04746 -0.456593,0.134501 -0.224533,0.08712 -0.424876,0.202791 -0.204939,0.118322 -0.398574,0.266499 -0.193698,0.14841 -0.353058,0.319308 -0.15936,0.170898 -0.275753,0.36108 -0.116307,0.190331 -0.167236,0.391161 -0.05084,0.200978 -0.02699,0.410437 0.0237,0.209545 0.146048,0.421454 0.111815,0.19367 0.279134,0.312585 0.167405,0.119064 0.369252,0.174152 0.201846,0.05509 0.4285,0.05314 0.226592,-0.0017 0.458799,-0.04917 0.232059,-0.04738 0.457631,-0.1351 0.225571,-0.08772 0.42369,-0.202107 0.204939,-0.118322 0.398637,-0.266732 0.193635,-0.148176 0.352995,-0.319074 0.15936,-0.170898 0.275667,-0.361229 0.116393,-0.190183 0.167236,-0.391161 0.05093,-0.200829 0.02654,-0.411561 -0.02454,-0.210645 -0.145511,-0.420182 -0.111815,-0.193669 -0.27922,-0.312733 -0.16732,-0.118916 -0.369166,-0.174003 z m -0.596882,0.448019 q 0.179066,-0.03814 0.342187,-0.02752 0.16312,0.01062 0.299072,0.08239 0.135953,0.07178 0.225422,0.226742 0.08022,0.13895 0.08639,0.273599 0.006,0.134735 -0.0432,0.263196 -0.04927,0.128694 -0.143899,0.246992 -0.09469,0.118532 -0.217643,0.227483 -0.123104,0.109037 -0.265101,0.206244 -0.142144,0.09729 -0.283911,0.179141 -0.132573,0.07654 -0.296702,0.159042 -0.164192,0.08273 -0.340038,0.147681 -0.175909,0.06518 -0.356161,0.104001 -0.180253,0.03882 -0.342187,0.02752 -0.162083,-0.01121 -0.298035,-0.08299 -0.135952,-0.07178 -0.225421,-0.226743 -0.08022,-0.138949 -0.08624,-0.273684 -0.0062,-0.134649 0.04192,-0.262659 0.04803,-0.127775 0.143899,-0.246992 0.09581,-0.118983 0.218915,-0.22802 0.122956,-0.108952 0.263914,-0.205558 0.14081,-0.09652 0.282577,-0.178371 0.132721,-0.07663 0.296913,-0.159362 0.164129,-0.0825 0.341076,-0.14828 0.177032,-0.06563 0.356247,-0.103852 z"
         stroke="#191919"
         stroke-width="0.35 px"
         style="fill:#000000;fill-opacity:1;fill-rule:evenodd;stroke:none;stroke-width:0.35;stroke-linecap:square;stroke-miterlimit:4;stroke-dasharray:none" />
      <title
         id="title6">b'ShapeL30'</title>
    </g>
  </g>
</svg>
